/eos/user/m/maly/qualiTask/TestSamples/Ghh/mc16d/EXOT8/mc16_13TeV.301488.MadGraphPythia8EvtGen_A14NNPDF23LO_RS_G_hh_bbbb_c10_M300.deriv.DAOD_EXOT8.e3820_e5984_s3126_r10201_r10210_p4089/DAOD_EXOT8.20583129._000002.pool.root.1
/eos/user/m/maly/qualiTask/TestSamples/Ghh/mc16d/EXOT8/mc16_13TeV.301488.MadGraphPythia8EvtGen_A14NNPDF23LO_RS_G_hh_bbbb_c10_M300.deriv.DAOD_EXOT8.e3820_e5984_s3126_r10201_r10210_p4089/DAOD_EXOT8.20583129._000003.pool.root.1
/eos/user/m/maly/qualiTask/TestSamples/Ghh/mc16d/EXOT8/mc16_13TeV.301488.MadGraphPythia8EvtGen_A14NNPDF23LO_RS_G_hh_bbbb_c10_M300.deriv.DAOD_EXOT8.e3820_e5984_s3126_r10201_r10210_p4089/DAOD_EXOT8.20583129._000004.pool.root.1
/eos/user/m/maly/qualiTask/TestSamples/Ghh/mc16d/EXOT8/mc16_13TeV.301488.MadGraphPythia8EvtGen_A14NNPDF23LO_RS_G_hh_bbbb_c10_M300.deriv.DAOD_EXOT8.e3820_e5984_s3126_r10201_r10210_p4089/DAOD_EXOT8.20583129._000006.pool.root.1
/eos/user/m/maly/qualiTask/TestSamples/Ghh/mc16d/EXOT8/mc16_13TeV.301488.MadGraphPythia8EvtGen_A14NNPDF23LO_RS_G_hh_bbbb_c10_M300.deriv.DAOD_EXOT8.e3820_e5984_s3126_r10201_r10210_p4089/DAOD_EXOT8.20583129._000008.pool.root.1
